Homework 4 Final
…
Warning: The following named parsers don't match the column names: Siblings,
Parents

colnames(df)[1]  <- "y"
colnames(df)[6]  <- "Siblings"
colnames(df)[7]  <- "Parents"

df$Sex<-ifelse(df$Sex=="male",1,0)

names(df) <- tolower(names(df))

df

# A tibble: 887 × 8
   y     pclass name                            sex   age siblings parents  fare
   <fct> <fct>  <chr>                         <dbl> <dbl>    <dbl>   <dbl> <dbl>
 1 0     3      Mr. Owen Harris Braund            1    22        1       0  7.25
 2 1     1      Mrs. John Bradley (Florence …     0    38        1       0 71.3 
 3 1     3      Miss. Laina Heikkinen             0    26        0       0  7.92
 4 1     1      Mrs. Jacques Heath (Lily May…     0    35        1       0 53.1 
 5 0     3      Mr. William Henry Allen           1    35        0       0  8.05
 6 0     3      Mr. James Moran                   1    27        0       0  8.46
 7 0     1      Mr. Timothy J McCarthy            1    54        0       0 51.9 
 8 0     3      Master. Gosta Leonard Palsson     1     2        3       1 21.1 
 9 1     3      Mrs. Oscar W (Elisabeth Vilh…     0    27        0       2 11.1 
10 1     2      Mrs. Nicholas (Adele Achem) …     0    14        1       0 30.1 
# ℹ 877 more rows
…
